# 自分の位置を基準にクリーパーの顔を描く

# 描く部分の上を取り除く
fill ~ ~ ~ ~7 ~5 ~7 air

# 全体を緑で塗る 羊毛は13番が緑
fill ~0 ~-1 ~0 ~7 ~-1 ~7 wool 13

# 目を黒で塗る 羊毛は15番が黒
fill ~1 ~-1 ~2 ~2 ~-1 ~3 wool 15
fill ~5 ~-1 ~2 ~6 ~-1 ~3 wool 15

# 口を黒で塗る
fill ~2 ~-1 ~5 ~2 ~-1 ~7 wool 15
fill ~5 ~-1 ~5 ~5 ~-1 ~7 wool 15
fill ~3 ~-1 ~4 ~4 ~-1 ~6 wool 15
